module go-lambda-template

go 1.14

require (
	github.com/aws/aws-lambda-go v1.20.0
	github.com/kr/text v0.2.0 // indirect
	github.com/niemeyer/pretty v0.0.0-20200227124842-a10e7caefd8e // indirect
	gopkg.in/check.v1 v1.0.0-20200902074654-038fdea0a05b // indirect
)
